{
    "inbox_title": "Inboxes",
    "inboxTitle_createInbox": "Create Inbox",
    "genericError_description": "Something went wrong",
    "genericError_title": "Hmm...",
    "inboxTable_deleteInboxPrompt_description": "Deleting your inbox will delete all emails and aliases associated with it.",
    "inboxTable_deleteInboxPromp_title": "Are you sure you want to delete this inbox.",
    "inboxTable_deletedInbox_success_description": "Inbox deleted",
    "inboxTable_deletedInbox_success_title": "Success",
    "inboxTable_deletedAlias_success_title": "Success",
    "inboxTable_deletedAlias_success_description": "Alias deleted",
    "inboxTable_deleteAliasPromp_title": "Are you sure you want to delete this alias",
    "inboxTable_deleteAliasPrompt_description": "This may affect internet accounts you have created with this alias",
    "createInboxPrompt_title": "Create a new inbox",
    "createInboxPrompt_description": "Enter the email address of the new inbox you want to create.",
    "createInbox_success_description": "Inbox created.",
    "createInbox_success_title": "Success",
    "inboxTable_newAlias": "New Alias",
    "createAliasPrompt_title": "Create new Alias",
    "createAliasPrompt_description": "Enter the email address of the new alias you want to create",
    "createAlias_success_description": "Alias created.",
    "createAlias_success_title": "Success"
}
